…
For each (airport, day) contruct a tidy data set of the airport’s
“performance” as the proportion of flights that departed less than an
hour late.

    performance<-flights %>% mutate(day_of_year = yday(time_hour)) %>%
      mutate(major_delay=ifelse(dep_delay<60, 1, 0)) %>%
      group_by(origin, day_of_year) %>%
      summarize(major_delay=mean(major_delay, na.rm=T)) %>%
      mutate(minor_delay=(1-major_delay)*100)
    performance

    ## # A tibble: 1,095 x 4
    ## # Groups:   origin [3]
    ##    origin day_of_year major_delay minor_delay
    ##    <chr>        <dbl>       <dbl>       <dbl>
    ##  1 EWR              1       0.918        8.22
    ##  2 EWR              2       0.837       16.3 
    ##  3 EWR              3       0.979        2.10
    ##  4 EWR              4       0.935        6.53
    ##  5 EWR              5       0.966        3.38
    ##  6 EWR              6       0.95         5.  
    ##  7 EWR              7       0.921        7.89
    ##  8 EWR              8       0.982        1.81
    ##  9 EWR              9       0.976        2.39
    ## 10 EWR             10       0.980        2.04
    ## # … with 1,085 more rows

Construct a tidy data set to that give weather summaries for each
(airport, day). Use the total precipitation, minimum visibility, maximum
wind\_gust, and average wind\_speed.

    weather_summary<-weather %>% mutate(day_of_year = yday(time_hour)) %>%
      select(day_of_year, origin, precip, visib, wind_gust, wind_speed) %>%
      group_by(day_of_year, origin) %>%
      mutate(wind_gust=ifelse(is.na(wind_gust), 0, wind_gust)) %>%
      summarize(total_precip=sum(precip, na.rm=T), min_visib=min(visib, na.rm=T),  max_wind=max(wind_gust, na.rm=T), avg_wind=mean(wind_speed, na.rm=T)) %>%
      mutate(max_wind=ifelse(max_wind==0, NA, max_wind))
    weather_summary

    ## # A tibble: 1,092 x 6
    ## # Groups:   day_of_year [364]
    ##    day_of_year origin total_precip min_visib max_wind avg_wind
    ##          <dbl> <chr>         <dbl>     <dbl>    <dbl>    <dbl>
    ##  1           1 EWR               0        10     26.5    13.2 
    ##  2           1 JFK               0        10     35.7    15.4 
    ##  3           1 LGA               0         9     28.8    15.4 
    ##  4           2 EWR               0        10     26.5    10.9 
    ##  5           2 JFK               0        10     29.9    14.5 
    ##  6           2 LGA               0        10     23.0    13.6 
    ##  7           3 EWR               0        10     NA       8.58
    ##  8           3 JFK               0        10     NA      11.7 
    ##  9           3 LGA               0        10     23.0    11.1 
    ## 10           4 EWR               0        10     31.1    14.0 
    ## # … with 1,082 more rows
…
